"LightmappedGeneric"
{
	// Original shader: SphericalEnvMapBlendMaskedBaseTimesLightmap
	"$basealphaenvmapmask" 1
	"$basetexture" "Nature/dirtfloor003b"
	"$envmap" "env_cubemap"
	"$surfaceprop" "dirt"

	"LightmappedGeneric_DX8"
	{
		"$envmap" "environment maps/envmap001a"
		"$envmapsphere" 1
	}
}
