"LightmappedGeneric"
{
	"$basetexture" "nature/rockwall021b"
	"$surfaceprop" "concrete"
	"$bumpmap" "nature/rockwall021b_normal"
	//"$parallaxmap" "nature/rockwall021b_height"
	//"$parallaxmapscale" ".025"
	"$detail" "nature/rockwall021_detail"
	"$detailscale" 5
}
