"VertexLitGeneric"
{
//	"$translucent" 1
	"$basetexture" "models/props_c17/canister_propane01a"
	"$envmap" "env_cubemap"
	"$basealphaenvmapmask" 1
//	"$envmaptint" "[.1 .1 .1]"

	"VertexLitGeneric_DX9"
	{
	"$detail" "detail\plaster_detail_01"
	"$detailscale" "4.545"
	"$detailblendfactor" .8
	"$detailblendmode" 0
	}
	//"$seamless_detail" "1"
	//"$seamless_scale" ".006"
}



