"LightmappedGeneric"
{
	"$basetexture" "Plaster/plasterwall036a"
	"$surfaceprop"  "plaster"
	"LightmappedGeneric_DX9"
	{
		"$detail" "detail\plaster_detail_01"
		"$detailscale" "6.783"
		"$detailblendfactor" .8
		"$detailblendmode" "0"
	}

	"%keywords" "c17downtown"
}
