"VertexLitGeneric"
{
	"$surfaceprop" "flesh"
	"$selfillum" 1
	"$selfillumtint" "[4 4 .1]"
	"$model" 1
	"$phong" 1
	"$phongboost" "4"
	"$phongexponenttexture" "models/combine_soldier/combinesoldiersheet_prisonguard_grey"
	"$phongalbedotint" "1"										
	"$phongfresnelranges"	"[.1 .5 1.0]"

	// Use separate self-illum mask on Pre DX9 hardware
	">=dx90_20b"
	{
		"$baseTexture" 		"Models/Combine_soldier/combinesoldier_prisonguard_noalpha"
		"$selfillummask" 	"Models/Combine_soldier/combinesoldierselfillummask"
		"$bumpmap" "models/combine_soldier/combinesoldiersheet_prisonguard_normal"
	}

	// Use redundant self-illum in base alpha on Pre DX9 hardware
	"<dx90_20b"
	{
		"$baseTexture" 		"Models/Combine_soldier/combinesoldiersheet_prisonguard"
		"$envmap" "env_cubemap"	
		"$envmapmask" "Models/Combine_soldier/combinesoldiersheet_mask"
		"$envmapcontrast" 1
	}
}
