"VertexLitGeneric"
{
	"$baseTexture" 	"Models/Combine_soldier/combinesoldiersheet_314"
	"$envmap" "env_cubemap"	
	"$envmapmask" "Models/Combine_soldier/combinesoldiersheet_314_mask"
	"$envmapcontrast" 1
	"$surfaceprop" "flesh"
	"$selfillum" 1
	"$model" 1
}



