"LightmappedGeneric"
{
	"$basetexture" "Concrete/concretefloor013a"
	"$surfaceprop" "concrete"
	
	"LightmappedGeneric_DX9"
	{
    "$detail" "detail\noise_detail_01"
	"$detailscale" "7.345"
	"$detailblendfactor" .6
	"$detailblendmode" 0
	}
	"$bumpmap" "concrete/concretefloor013a_normal"
}
