"LightmappedGeneric"
{
	// Original shader: BaseTimesLightmap
	"$basetexture" "Concrete/concretewall007b"
	"$surfaceprop" "concrete"
	
	"LightmappedGeneric_DX9"
	{
		"$detail" "detail\noise_detail_01"
		"$detailscale" "7.345"
		"$detailblendfactor" .6
		"$detailblendmode" 0
	}
	"%keywords" "c17downtown"
}
