"LightmappedGeneric"
{
	"$baseTexture" "concrete/concretewall_bunker03c"
	"$surfaceprop" "concrete"
	">=DX90"
	{
	"$detail" "detail\noise_detail_01"
	"$detailscale" "7.792"
	"$detailblendfactor" .7
	"$detailblendmode" 0
	}
	"%keywords" "ep2"
}
