// envmaptint_fix
"LightmappedGeneric"
{
	"$basetexture" "concrete\concretefloor028c"
	"$surfaceprop" "concrete"
	"%keywords" "c17downtown"

	"LightmappedGeneric_DX9"
 	{
		"$detail" "detail\noise_detail_01"
		"$detailscale" "7.345"
		"$detailblendfactor" .6
		"$detailblendmode" 0
		"$bumpmap" "concrete\concretefloor028c_normal"
		"$envmap" "env_cubemap"
		"$envmapsaturation" 1
		"$envmapcontrast" 1
		"$envmaptint" "[ .45 .45 .45 ]"
		"hdr?$envmaptint" "[.12 .12 .12]"
		"$normalmapalphaenvmapmask" 1
	}
}

