"LightmappedGeneric"
{
	"$basetexture" "Concrete/concretefloor001a"
	"$surfaceprop" "concrete"
	
	"LightmappedGeneric_DX9"
	{
    "$detail" "detail\noise_detail_01"
	"$detailscale" "7.345"
	"$detailblendfactor" .6
	"$detailblendmode" 0
	}
	"%keywords" "c17downtown"
	"$bumpmap" "concrete/concretefloor001a_normal"
	//"$parallaxmap" "concrete/concretefloor001a_height"
	//"$parallaxmapscale" ".236"
}
