"LightmappedGeneric"
{
	"$basetexture" "Concrete/concretefloor007a"
	"$surfaceprop" "concrete"
	
	"%keywords" "c17downtown"

	"LightmappedGeneric_DX9"
	{
	    "$detail" "detail\noise_detail_01"
		"$detailscale" "7.345"
		"$detailblendfactor" .6
		"$detailblendmode" 0
		"$bumpmap" "concrete/concretefloor007a_normal"
		"$parallaxmap" "concrete/concretefloor007a_height"
		"$parallaxmapscale" ".05"
	}
}
