"LightmappedGeneric"
{
	"$basetexture" "Building_Template/courtyard_template002a"
	"$surfaceprop"  "concrete"
	"LightmappedGeneric_DX9"
	{
	"$detail" "detail\plaster_detail_01"
	"$detailscale" "8.583"
	"$detailblendfactor" 1.2
	"$detailblendmode" "0"
	}
}
