"VertexLitGeneric"
{
	"$baseTexture" "Models/Vortigaunt/vortigaunt_sheet"
	"$bumpmap" "Models/Vortigaunt/vortigaunt_normal_old"
//	"$envmap" "env_cubemap"
//	"$normalmapalphaenvmapmask" 1
//	"$envmapcontrast" "1"
//	"$envmaptint" "[.5 .5 .5]"
}
