// envmaptint_fix
"LightmappedGeneric"
{
	"$basetexture" "Metal/metalwall021e"
	"$surfaceprop"  "metal"

	"%keywords" "c17industrial,wasteland"

	"LightmappedGeneric_DX9"
	{
		"$detail" "detail\metal_detail_01"
		"$detailscale" "4.283"
		"$detailblendfactor" .8
		"$detailblendmode" "0"
		"$envmap" "env_cubemap"
		"$normalmapalphaenvmapmask" 1
		"$envmapcontrast" 1
		"$envmapsaturation" 1
		"$envmaptint" "[ .56 .56 .56 ]"
		"$bumpmap" "Metal/metalwall018e_normal"
	}
}
