// envmaptint_fix
"LightmappedGeneric"
{
	"$basetexture" "metal/metalwall012b"
	"$surfaceprop"  "metal"
	"LightmappedGeneric_DX9"
	{
		"$detail" "detail\metal_detail_01"
		"$detailscale" "4.283"
		"$detailblendfactor" .8
		"$detailblendmode" "0"
	}

	"%keywords" "c17downtown"
	"$bumpmap" "metal/metalwall012b_normal"
	"$envmap" "env_cubemap"
	"$normalmapalphaenvmapmask" 1
	"$envmapcontrast" 1
	"$envmapsaturation" 1
	"$envmaptint" "[ .09 .09 .12 ]"
}

