"sky"
{
	"$hdrcompressedTexture" "skybox/sky_day01_08_hdrrt"
	"$nofog" "1"
	"$ignorez" "1"
	"hdr?$basetexturetransform" "center 0 0 scale 1 2 rotate 0 translate 0 0"
	"$basetexture" "skybox/sky_day01_08rt"
}