"sky"
{
	"$basetexture" "skybox/sky_ep02_04bk"
	"$hdrbasetexture" "skybox/sky_ep02_04bk"
	"$nofog" 1
	$ignorez 1

	// NOTE: The 1.8618 is because I took a 512x512 and clamped it to 275 high and then scaled it down to 256,
	//       so 512 / 275 = 1.8618
	"$basetexturetransform" "center 0 0 scale 1 1.8618 rotate 0 translate 0 0"
}
