"VertexLitGeneric"
{
	"$baseTexture" "Models\weapons\W_Hopwire\ball_sphere"
	"$bumpmap" "models\Weapons\W_Hopwire\hopwire_ball_n"
	"$normalmapalphaenvmapmask" 1
	//"$envmap" "env_cubemap"
	//"$envmapsaturation" .5
	//"$envmapcontrast" 1
	"$phong" "1"
	"$phongexponent" "40"
	"$phongboost"	"3"
	"$phongfresnelranges"	"[.4 1.3 5.1]"
}
