// Egon

WeaponData
{
	// Weapon data is loaded by both the Game and Client DLLs.
	"printname"			"#SMOD_EGon"
	"viewmodel"			"models/v_egon.mdl" //"models/weapons/v_egon.mdl"
	"playermodel"		"models/w_egon.mdl" //"models/weapons/w_egon.mdl"
	"anim_prefix"		"egon"
	"bucket"			"special"
	"bucket_position"	"2"

	"clip_size"		"-1"
	"default_clip"		"20"
	"primary_ammo"		"Uranium"
	"secondary_ammo"	"None"

	"item_flags"		"20"
	"ITEM_FLAG_NOAUTOSWITCHEMPTY"	"1"

	// Sounds for the weapon. There is a max of 16 sounds per category (i.e. max 16 "single_shot" sounds)
	SoundData
	{
	}

	// Weapon Sprite data is loaded by the Client DLL.
	TextureData
	{
		"weapon"
		{
			"file"		"sprites/640hud2"
			"x"			"0"
			"y"			"135"
			"width"		"170"
			"height"	"45"
		}
		"weapon_s"
		{	
			"file"		"sprites/640hud5"
			"x"			"0"
			"y"			"135"
			"width"		"170"
			"height"	"45"
		}
		"ammo"
		{
			"file"		"sprites/640hud7"
			"x"			"0"
			"y"			"96"
			"width"		"24"
			"height"	"24"
		}
		"crosshair"
		{
				"font"		"Crosshairs"
				"character"	"Q"
		}
		"autoaim"
		{
			"file"		"sprites/crosshairs"
			"x"			"0"
			"y"			"48"
			"width"		"24"
			"height"	"24"
		}
	}
}