"LightmappedGeneric"
{
	"$basetexture" "Props/metalduct001a"
	"$surfaceprop" "metalvent"
	"$envmap" "env_cubemap"
	"$basealphaenvmapmask" 1
	"$envmapcontrast" 1
	"$envmapsaturation" 1
	"$envmaptint" "[ .75 .75 .75]"
	"hdr?$envmaptint" "[.25 .25 .25]"
}
