"UnlitGeneric"
{
//	"$spriteorientation" "vp_parallel_oriented"
//	"$spriteorigin" "[ 0.50 0.50 ]"
	"$translucent" 1
	"$basetexture" "effects/exit1"
//	"$selfillum" 1
	"ldr?$gammaColorRead" "1"
	"ldr?$linearWrite" "1"
	"Proxies"
	{
		"AnimatedTexture"
		{
			"animatedtexturevar" "$basetexture"
			"animatedtextureframenumvar" "$frame"
			"animatedtextureframerate" 10
		}
	}
}
