"vertexlitgeneric"
{
	"$basetexture" "models/Weapons/v_crowbar/crowbar_cyl"
	"$bumpmap" "models/Weapons/v_crowbar/crowbar_normal"

// -- From here down is new stuff which will only be applied if $phong is set to 1 --
	"$phong" "1"
//	"$lightwarptexture" "models/alyx/skin_lightwarp"
	"$phongexponent" "15"
	"$phongboost"	"1"
	"$phongfresnelranges"	"[.1 0.4 2]"

	"<DX90_20b"
	{
		"$envmaptint" "[ .64 .64 .64 ]"
		"$envmap" "env_cubemap"
		"$normalmapalphaenvmapmask" 1
	}
}
