// envmaptint_fix
"LightmappedGeneric"
{
	"$basetexture" "Vehicle/metaltrain002b"
	"$surfaceprop" "metal"
	"$bumpmap" "Vehicle/metaltrain002b_normal"
	"$envmap" "env_cubemap"
	"$normalmapalphaenvmapmask" 1
	"$envmapcontrast" 1
	"$envmapsaturation" 1
	"$envmaptint" "[ .56 .56 .56 ]"
	"LightmappedGeneric_DX9"
	{
		"$detail" "detail\metal_detail_01"
		"$detailscale" "5.345"
		"$detailblendfactor" .4
		"$detailblendmode" 0
	}
}
