"VertexLitGeneric"
{
	"$basetexture" "Models/props_trainstation/train003"
	"$surfaceprop" "metal"
	"$envmaptint" "[ .1 .1 .1]"
	"$envmap" "env_cubemap"
	"$basealphaenvmapmask" 1

	"VertexLitGeneric_DX9"
	{
    "$detail" "detail\metal_detail_01"
	"$detailscale" "14.345"
	"$detailblendfactor" .6
	"$detailblendmode" 0
	}
}
