"LightmappedGeneric"
{
	// Original shader: BaseTimesLightmap
	"$basetexture" "Stone/stonewall006b"
	"$surfaceprop" "concrete"
	"%keywords" "c17downtown"

	"LightmappedGeneric_DX9"
	{
	"$detail" "detail\noise_detail_01"
	"$detailscale" "7.345"
	"$detailblendfactor" .8
	"$detailblendmode" 0
	}
}
